\contentsline {section}{\numberline {1}Introdu\c c\~ao}{2}{section.1}
\contentsline {subsection}{\numberline {1.1}Jogo Othello}{2}{subsection.1.1}
\contentsline {subsubsection}{\numberline {1.1.1}Regras do Jogo}{2}{subsubsection.1.1.1}
\contentsline {section}{\numberline {2}Estrat\'egias de Busca}{2}{section.2}
\contentsline {subsection}{\numberline {2.1}Busca em Profundidade}{2}{subsection.2.1}
\contentsline {subsection}{\numberline {2.2}Busca em Profundidade Iterativa}{2}{subsection.2.2}
\contentsline {subsection}{\numberline {2.3}Busca em Largura}{2}{subsection.2.3}
\contentsline {subsection}{\numberline {2.4}Busca de Custo Uniforme}{2}{subsection.2.4}
\contentsline {section}{\numberline {3}Algoritmo Minimax}{2}{section.3}
\contentsline {section}{\numberline {4}Algoritmo Poda $\alpha $-$\beta $}{2}{section.4}
\contentsline {section}{\numberline {5}An\'alise de Resultados}{2}{section.5}
\contentsline {section}{\numberline {6}Conclus\~ao}{2}{section.6}
